<!-- Created by Cary Bass http://commons.wikipedia.com/wiki/User:Bastique on January 20, 2006 -->

<svg xmlns:rdf="http://www.w3.org/1999/02/22-rdf-syntax-ns#" xmlns="http://www.w3.org/2000/svg" height="525" width="600" version="1.1" xmlns:cc="http://creativecommons.org/ns#" xmlns:dc="http://purl.org/dc/elements/1.1/">

 <metadata>

  <rdf:RDF>

   <cc:Work rdf:about="">

    <dc:format>image/svg+xml</dc:format>

    <dc:type rdf:resource="http://purl.org/dc/dcmitype/StillImage"/>

    <dc:title/>

   </cc:Work>

  </rdf:RDF>

 </metadata>

 <path d="M597.6,499.6,313.8,8c-2.9-5-8.2-8-13.9-8s-11,3.1-13.9,8l-283.8,491.6c-2.9,5-2.9,11.1,0,16,2.9,5,8.2,8,13.9,8h567.6c5.7,0,11-3.1,13.9-8,2.9-5,2.9-11.1,0-16z"/>

 <polygon points="555.88,491.5,43.875,491.5,299.88,48.2" fill="#f6bd16" transform="matrix(1,0,0,0.99591458,0.125,2.0332437)"/>

 <g fill="#000000" transform="translate(659.82936,0)">

  <path d="m-277.23,246.32-14.481,14.481c17.404,17.454,28.173,41.528,28.173,68.102s-10.77,50.648-28.173,68.102l14.481,14.481c21.105-21.155,34.149-50.357,34.149-82.583s-13.045-61.427-34.149-82.583z"/>

  <path d="m-298.41,270.78-12.265,12.265c11.525,11.578,16.924,28.121,16.924,45.731s-6.7342,34.153-18.259,45.731l13.219,13.41c15.055-15.107,23.778-37.103,23.778-60.095s-8.341-41.934-23.396-57.041z"/>

  <path d="m-360,312.36c-4.6595,0-8.8605,1.9234-11.869,5.026-0.06,0.0617-0.12264,0.119-0.18165,0.18163-0.24512,0.26078-0.49866,0.51099-0.72665,0.78721-0.0461,0.056-0.0756,0.12502-0.1211,0.18165-0.32579,0.40537-0.62122,0.83632-0.90832,1.2717-0.25822,0.39158-0.50176,0.79727-0.72666,1.2111-0.0217,0.04-0.0391,0.0808-0.0604,0.12112-0.48138,0.90308-0.90206,1.8532-1.2111,2.8461-0.16118,0.51801-0.31361,1.036-0.4239,1.5744-0.005,0.0194,0.005,0.0418,0,0.0604-0.1043,0.51956-0.18775,1.0385-0.2422,1.5744-0.001,0.0197,0.001,0.0408,0,0.0604-0.0527,0.53675-0.0604,1.0845-0.0604,1.635,0,0.55931,0.006,1.09,0.0604,1.635,0.001,0.0197-0.001,0.0407,0,0.0604,0.054,0.52463,0.14015,1.0656,0.2422,1.5744,0.11223,0.55866,0.25682,1.0982,0.4239,1.635,0.30903,0.9929,0.72971,1.943,1.2111,2.8461,0.0209,0.0393,0.0393,0.082,0.0604,0.1211,0.22705,0.41918,0.46546,0.81472,0.72666,1.2111,0.2871,0.43536,0.58253,0.86629,0.90832,1.2716,0.3235,0.40249,0.67037,0.78018,1.0294,1.1505,3.0082,3.1026,7.2092,5.026,11.869,5.026,4.6595,0,8.8605-1.9234,11.869-5.026,0.0597-0.0616,0.12278-0.11914,0.18165-0.18165,0.24618-0.26194,0.49775-0.50966,0.72665-0.78721,0.046-0.0559,0.0757-0.12544,0.1211-0.18165,0.32578-0.40533,0.62122-0.83629,0.90831-1.2716,0.26121-0.39636,0.49963-0.79189,0.72667-1.2111,0.0215-0.0391,0.0394-0.0819,0.0604-0.12124,0.48138-0.90308,0.90205-1.8531,1.2111-2.8461,0.006-0.0194-0.006-0.042,0-0.0604,0.14937-0.49018,0.32007-1.0055,0.42389-1.5139,0.005-0.0196-0.005-0.0412,0-0.0604,0.1022-0.5088,0.18813-1.0498,0.2422-1.5744,0.001-0.0197-0.001-0.0407,0-0.0604,0.0541-0.54493,0.0604-1.0757,0.0604-1.635,0-0.57958-0.001-1.1314-0.0604-1.6955-0.0545-0.53586-0.13776-1.0549-0.2422-1.5744-0.005-0.0194,0.005-0.0418,0-0.0604-0.10641-0.51912-0.27017-1.0136-0.42389-1.5139-0.006-0.0194,0.006-0.042,0-0.0604-0.30904-0.99291-0.72971-1.943-1.2111-2.8461-0.0215-0.0404-0.039-0.081-0.0604-0.1211-0.2249-0.41383-0.46845-0.81949-0.72667-1.2111-0.28709-0.43534-0.58253-0.86628-0.90831-1.2716-0.0455-0.0566-0.075-0.12558-0.1211-0.18147-0.28265-0.34244-0.59948-0.65036-0.90831-0.96888-3.0082-3.1026-7.2092-5.026-11.869-5.026z"/>

  <path d="m-372.11,360.25-27.155,111.13,78.413,0.19083-26.997-110.94z"/>

  <path d="m-320.08,291.56-14.439,14.009c4.5805,5.8659,9.326,14.415,9.326,23.304,0,8.8902-3.7903,18.672-8.3719,24.528l13.104,13.738c7.9259-10.104,14.718-23.091,14.718-38.457s-6.4103-27.017-14.336-37.122z"/>

  <g transform="matrix(-1,0,0,1,-719.65872,0)">

   <path d="m-277.23,246.32-14.481,14.481c17.404,17.454,28.173,41.528,28.173,68.102s-10.77,50.648-28.173,68.102l14.481,14.481c21.105-21.155,34.149-50.357,34.149-82.583s-13.045-61.427-34.149-82.583z"/>

   <path d="m-298.41,270.78-12.265,12.265c11.525,11.578,16.924,28.121,16.924,45.731s-6.7342,34.153-18.259,45.731l13.219,13.41c15.055-15.107,23.778-37.103,23.778-60.095s-8.341-41.934-23.396-57.041z"/>

   <path d="m-320.08,291.56-14.439,14.009c4.5805,5.8659,9.326,14.415,9.326,23.304,0,8.8902-3.7903,18.672-8.3719,24.528l13.104,13.738c7.9259-10.104,14.718-23.091,14.718-38.457s-6.4103-27.017-14.336-37.122z"/>

  </g>

 </g>

</svg>

