<svg xmlns="http://www.w3.org/2000/svg" width="32px" height="32px" style="fill:none;stroke-linecap:round;stroke:#08080b">
    <ellipse rx="6" ry="15.5" cx="16" cy="16" />
    <ellipse rx="6" ry="15.5" cx="16" cy="16" transform="rotate(60 16 16)" />
    <ellipse rx="6" ry="15.5" cx="16" cy="16" transform="rotate(120 16 16)" />
    <line x1="13" x2="19" y1="14" y2="14" />
    <line x1="13" x2="19" y1="16" y2="16" />
    <line x1="13" x2="19" y1="18" y2="18" />
</svg>
