<svg xmlns="http://www.w3.org/2000/svg" width="1.5em" height="1.5em" style="fill:currentColor" viewBox="0 0 16 16">
  <path id="svg_1" d="m10.30703,6.58767zm1.9032,-3.01597l0,-0.03733c0,-0.36618 0.26071,-0.69267 0.70867,-0.69267c0.40055,0 0.69563,0.26071 0.69563,0.65534c0,0.36974 -0.24886,0.65237 -0.47817,0.9042l-1.57554,1.74559l0,0.44084l2.83229,0l0,-0.5866l-1.85284,0l0,-0.04088l1.047,-1.17676c0.38514,-0.42899 0.73296,-0.78925 0.73296,-1.34504c-0.00059,-0.67134 -0.5475,-1.17439 -1.38593,-1.17439c-0.93205,0 -1.39837,0.63045 -1.39837,1.27394l0,0.03377l0.6743,0z" opacity="undefined"/>
  <path d="m4.64613,4.64613a0.5,0.5 0 0 1 0.708,0l2.646,2.647l2.646,-2.647a0.5,0.5 0 0 1 0.708,0.708l-2.647,2.646l2.647,2.646a0.5,0.5 0 0 1 -0.708,0.708l-2.646,-2.647l-2.646,2.647a0.5,0.5 0 0 1 -0.708,-0.708l2.647,-2.646l-2.647,-2.646a0.5,0.5 0 0 1 0,-0.708z"/>
</svg>