<?xml version="1.0" standalone="no"?>
<!DOCTYPE svg PUBLIC "-//W3C//DTD SVG 20010904//EN"
 "http://www.w3.org/TR/2001/REC-SVG-20010904/DTD/svg10.dtd">
<svg version="1.0" xmlns="http://www.w3.org/2000/svg"
 width="256.000000pt" height="256.000000pt" viewBox="0 0 256.000000 256.000000"
 preserveAspectRatio="xMidYMid meet">

<g transform="translate(0.000000,256.000000) scale(0.100000,-0.100000)"
fill="#000000" stroke="none">
<path d="M1218 2371 c-45 -15 -94 -49 -120 -84 -50 -66 -1072 -1771 -1086
-1811 -32 -92 12 -205 102 -261 l49 -30 1117 0 1117 0 49 30 c90 56 134 169
102 261 -14 40 -1036 1745 -1086 1812 -51 68 -168 107 -244 83z m109 -183 c40
-46 1063 -1756 1063 -1778 0 -13 -7 -32 -17 -42 -15 -17 -62 -18 -1091 -18
-987 0 -1077 1 -1094 17 -10 9 -18 27 -18 41 0 24 1020 1731 1063 1780 12 12
32 22 47 22 15 0 35 -10 47 -22z"/>
<path d="M1198 1659 l-31 -30 7 -212 c13 -435 16 -468 43 -495 21 -21 31 -24
71 -19 84 9 82 0 98 514 l7 212 -31 30 c-26 27 -38 31 -82 31 -44 0 -56 -4
-82 -31z"/>
<path d="M1204 756 c-32 -32 -39 -52 -35 -101 5 -56 54 -95 119 -95 32 0 47 7
71 30 78 79 27 200 -85 200 -28 0 -44 -8 -70 -34z"/>
</g>
</svg>
