<svg xmlns="http://www.w3.org/2000/svg" width="24" height="24" style="fill:currentColor" viewBox="0 0 24 24">
    <path d="M5 2 l2 0 l0 3 l3 0 l0 2 l-3 0 l0 3 l-2 0 l0 -3 l-3 0 l0 -2 l3 0"/>
    <path d="M14 5 l8 0 l0 2 l-8 0"/>
    <path d="M5 14 l2 0 l0 3 l3 0 l0 2 l-3 0 l0 3 l-2 0 l0 -3 l-3 0 l0 -2 l3 0" transform="rotate(45, 6, 18)"/>
    <path d="M14 15 l8 0 l0 2 l-8 0"/>
    <path d="M14 19 l8 0 l0 2 l-8 0"/>
</svg>