<?xml version="1.0" encoding="UTF-8" standalone="no"?>
<svg xmlns:svg="http://www.w3.org/2000/svg" xmlns="http://www.w3.org/2000/svg" version="1.1"
     width="600px" height="400px">
    <line x1="200" y1="100" x2="400" y2="300" style="stroke:#fff5db;stroke-width:32px;"/>
    <line x1="400" y1="100" x2="200" y2="300" style="stroke:#fff5db;stroke-width:32px;"/>
</svg>
