<svg xmlns="http://www.w3.org/2000/svg" width="32" height="32" style="stroke:none;">
    <circle r="2.5" cx="16" cy="8"/>
    <circle r="2.5" cx="16" cy="16"/>
    <circle r="2.5" cx="16" cy="24"/>
</svg>
