<svg xmlns="http://www.w3.org/2000/svg" width="50" height="50" style="fill:none;stroke-linecap:round;stroke-linejoin:round;stroke:#fff5db;stroke-width:4">
    <path d="M10 2 L2 2 L 2 10 M2 40 L2 48 L10 48 M40 48 L48 48 L48 40 M48 10 L48 2 L40 2"/>
    <path d="M25 40 L25 10 M 15 20 L25 10 L35 20"/>
</svg>